('D:\\knight-vision_tp\\electron-app\\python\\build\\main\\main.pkg',
 {'BINARY': True,
  'DATA': True,
  'EXECUTABLE': True,
  'EXTENSION': True,
  'PYMODULE': True,
  'PYSOURCE': True,
  'PYZ': False,
  'SPLASH': True},
 [('PYZ-00.pyz',
   'D:\\knight-vision_tp\\electron-app\\python\\build\\main\\PYZ-00.pyz',
   'PYZ'),
  ('struct',
   'D:\\knight-vision_tp\\electron-app\\python\\build\\main\\localpycs\\struct.pyc',
   'PYMODULE'),
  ('pyimod01_archive',
   'D:\\knight-vision_tp\\electron-app\\python\\build\\main\\localpycs\\pyimod01_archive.pyc',
   'PYMODULE'),
  ('pyimod02_importers',
   'D:\\knight-vision_tp\\electron-app\\python\\build\\main\\localpycs\\pyimod02_importers.pyc',
   'PYMODULE'),
  ('pyimod03_ctypes',
   'D:\\knight-vision_tp\\electron-app\\python\\build\\main\\localpycs\\pyimod03_ctypes.pyc',
   'PYMODULE'),
  ('pyimod04_pywin32',
   'D:\\knight-vision_tp\\electron-app\\python\\build\\main\\localpycs\\pyimod04_pywin32.pyc',
   'PYMODULE'),
  ('pyiboot01_bootstrap',
   'C:\\Users\\Divyanshu\\Desktop\\knight-vision_tp\\electron-app\\python\\pyenv\\Lib\\site-packages\\PyInstaller\\loader\\pyiboot01_bootstrap.py',
   'PYSOURCE'),
  ('pyi_rth_inspect',
   'C:\\Users\\Divyanshu\\Desktop\\knight-vision_tp\\electron-app\\python\\pyenv\\Lib\\site-packages\\PyInstaller\\hooks\\rthooks\\pyi_rth_inspect.py',
   'PYSOURCE'),
  ('pyi_rth_pythoncom',
   'C:\\Users\\Divyanshu\\Desktop\\knight-vision_tp\\electron-app\\python\\pyenv\\Lib\\site-packages\\_pyinstaller_hooks_contrib\\hooks\\rthooks\\pyi_rth_pythoncom.py',
   'PYSOURCE'),
  ('pyi_rth_pywintypes',
   'C:\\Users\\Divyanshu\\Desktop\\knight-vision_tp\\electron-app\\python\\pyenv\\Lib\\site-packages\\_pyinstaller_hooks_contrib\\hooks\\rthooks\\pyi_rth_pywintypes.py',
   'PYSOURCE'),
  ('pyi_rth_setuptools',
   'C:\\Users\\Divyanshu\\Desktop\\knight-vision_tp\\electron-app\\python\\pyenv\\Lib\\site-packages\\PyInstaller\\hooks\\rthooks\\pyi_rth_setuptools.py',
   'PYSOURCE'),
  ('pyi_rth_pkgutil',
   'C:\\Users\\Divyanshu\\Desktop\\knight-vision_tp\\electron-app\\python\\pyenv\\Lib\\site-packages\\PyInstaller\\hooks\\rthooks\\pyi_rth_pkgutil.py',
   'PYSOURCE'),
  ('pyi_rth_multiprocessing',
   'C:\\Users\\Divyanshu\\Desktop\\knight-vision_tp\\electron-app\\python\\pyenv\\Lib\\site-packages\\PyInstaller\\hooks\\rthooks\\pyi_rth_multiprocessing.py',
   'PYSOURCE'),
  ('pyi_rth_pkgres',
   'C:\\Users\\Divyanshu\\Desktop\\knight-vision_tp\\electron-app\\python\\pyenv\\Lib\\site-packages\\PyInstaller\\hooks\\rthooks\\pyi_rth_pkgres.py',
   'PYSOURCE'),
  ('pyi_rth_win32comgenpy',
   'C:\\Users\\Divyanshu\\Desktop\\knight-vision_tp\\electron-app\\python\\pyenv\\Lib\\site-packages\\PyInstaller\\hooks\\rthooks\\pyi_rth_win32comgenpy.py',
   'PYSOURCE'),
  ('main', 'D:\\knight-vision_tp\\electron-app\\python\\main.py', 'PYSOURCE'),
  ('VCRUNTIME140.dll',
   'C:\\Users\\Divyanshu\\AppData\\Local\\Programs\\Python\\Python311\\VCRUNTIME140.dll',
   'BINARY'),
  ('python311.dll',
   'C:\\Users\\Divyanshu\\AppData\\Local\\Programs\\Python\\Python311\\python311.dll',
   'BINARY'),
  ('Cryptodome\\Hash\\_BLAKE2s.pyd',
   'C:\\Users\\Divyanshu\\Desktop\\knight-vision_tp\\electron-app\\python\\pyenv\\Lib\\site-packages\\Cryptodome\\Hash\\_BLAKE2s.pyd',
   'BINARY'),
  ('Cryptodome\\Hash\\_ghash_portable.pyd',
   'C:\\Users\\Divyanshu\\Desktop\\knight-vision_tp\\electron-app\\python\\pyenv\\Lib\\site-packages\\Cryptodome\\Hash\\_ghash_portable.pyd',
   'BINARY'),
  ('Cryptodome\\Cipher\\_raw_ctr.pyd',
   'C:\\Users\\Divyanshu\\Desktop\\knight-vision_tp\\electron-app\\python\\pyenv\\Lib\\site-packages\\Cryptodome\\Cipher\\_raw_ctr.pyd',
   'BINARY'),
  ('Cryptodome\\Hash\\_SHA256.pyd',
   'C:\\Users\\Divyanshu\\Desktop\\knight-vision_tp\\electron-app\\python\\pyenv\\Lib\\site-packages\\Cryptodome\\Hash\\_SHA256.pyd',
   'BINARY'),
  ('pywin32_system32\\pywintypes311.dll',
   'C:\\Users\\Divyanshu\\Desktop\\knight-vision_tp\\electron-app\\python\\pyenv\\Lib\\site-packages\\pywin32_system32\\pywintypes311.dll',
   'BINARY'),
  ('Cryptodome\\Cipher\\_raw_des.pyd',
   'C:\\Users\\Divyanshu\\Desktop\\knight-vision_tp\\electron-app\\python\\pyenv\\Lib\\site-packages\\Cryptodome\\Cipher\\_raw_des.pyd',
   'BINARY'),
  ('Cryptodome\\Hash\\_ghash_clmul.pyd',
   'C:\\Users\\Divyanshu\\Desktop\\knight-vision_tp\\electron-app\\python\\pyenv\\Lib\\site-packages\\Cryptodome\\Hash\\_ghash_clmul.pyd',
   'BINARY'),
  ('Cryptodome\\Cipher\\_raw_ocb.pyd',
   'C:\\Users\\Divyanshu\\Desktop\\knight-vision_tp\\electron-app\\python\\pyenv\\Lib\\site-packages\\Cryptodome\\Cipher\\_raw_ocb.pyd',
   'BINARY'),
  ('Cryptodome\\Cipher\\_raw_ofb.pyd',
   'C:\\Users\\Divyanshu\\Desktop\\knight-vision_tp\\electron-app\\python\\pyenv\\Lib\\site-packages\\Cryptodome\\Cipher\\_raw_ofb.pyd',
   'BINARY'),
  ('Cryptodome\\Hash\\_MD4.pyd',
   'C:\\Users\\Divyanshu\\Desktop\\knight-vision_tp\\electron-app\\python\\pyenv\\Lib\\site-packages\\Cryptodome\\Hash\\_MD4.pyd',
   'BINARY'),
  ('Cryptodome\\Cipher\\_chacha20.pyd',
   'C:\\Users\\Divyanshu\\Desktop\\knight-vision_tp\\electron-app\\python\\pyenv\\Lib\\site-packages\\Cryptodome\\Cipher\\_chacha20.pyd',
   'BINARY'),
  ('Cryptodome\\Cipher\\_raw_eksblowfish.pyd',
   'C:\\Users\\Divyanshu\\Desktop\\knight-vision_tp\\electron-app\\python\\pyenv\\Lib\\site-packages\\Cryptodome\\Cipher\\_raw_eksblowfish.pyd',
   'BINARY'),
  ('Cryptodome\\Hash\\_SHA384.pyd',
   'C:\\Users\\Divyanshu\\Desktop\\knight-vision_tp\\electron-app\\python\\pyenv\\Lib\\site-packages\\Cryptodome\\Hash\\_SHA384.pyd',
   'BINARY'),
  ('Cryptodome\\Cipher\\_raw_blowfish.pyd',
   'C:\\Users\\Divyanshu\\Desktop\\knight-vision_tp\\electron-app\\python\\pyenv\\Lib\\site-packages\\Cryptodome\\Cipher\\_raw_blowfish.pyd',
   'BINARY'),
  ('Cryptodome\\Hash\\_MD2.pyd',
   'C:\\Users\\Divyanshu\\Desktop\\knight-vision_tp\\electron-app\\python\\pyenv\\Lib\\site-packages\\Cryptodome\\Hash\\_MD2.pyd',
   'BINARY'),
  ('Cryptodome\\Cipher\\_Salsa20.pyd',
   'C:\\Users\\Divyanshu\\Desktop\\knight-vision_tp\\electron-app\\python\\pyenv\\Lib\\site-packages\\Cryptodome\\Cipher\\_Salsa20.pyd',
   'BINARY'),
  ('Cryptodome\\PublicKey\\_ed448.pyd',
   'C:\\Users\\Divyanshu\\Desktop\\knight-vision_tp\\electron-app\\python\\pyenv\\Lib\\site-packages\\Cryptodome\\PublicKey\\_ed448.pyd',
   'BINARY'),
  ('Cryptodome\\Hash\\_SHA512.pyd',
   'C:\\Users\\Divyanshu\\Desktop\\knight-vision_tp\\electron-app\\python\\pyenv\\Lib\\site-packages\\Cryptodome\\Hash\\_SHA512.pyd',
   'BINARY'),
  ('Cryptodome\\PublicKey\\_x25519.pyd',
   'C:\\Users\\Divyanshu\\Desktop\\knight-vision_tp\\electron-app\\python\\pyenv\\Lib\\site-packages\\Cryptodome\\PublicKey\\_x25519.pyd',
   'BINARY'),
  ('Cryptodome\\Cipher\\_raw_arc2.pyd',
   'C:\\Users\\Divyanshu\\Desktop\\knight-vision_tp\\electron-app\\python\\pyenv\\Lib\\site-packages\\Cryptodome\\Cipher\\_raw_arc2.pyd',
   'BINARY'),
  ('Cryptodome\\Cipher\\_raw_cfb.pyd',
   'C:\\Users\\Divyanshu\\Desktop\\knight-vision_tp\\electron-app\\python\\pyenv\\Lib\\site-packages\\Cryptodome\\Cipher\\_raw_cfb.pyd',
   'BINARY'),
  ('Cryptodome\\Cipher\\_raw_cast.pyd',
   'C:\\Users\\Divyanshu\\Desktop\\knight-vision_tp\\electron-app\\python\\pyenv\\Lib\\site-packages\\Cryptodome\\Cipher\\_raw_cast.pyd',
   'BINARY'),
  ('Cryptodome\\Protocol\\_scrypt.pyd',
   'C:\\Users\\Divyanshu\\Desktop\\knight-vision_tp\\electron-app\\python\\pyenv\\Lib\\site-packages\\Cryptodome\\Protocol\\_scrypt.pyd',
   'BINARY'),
  ('Cryptodome\\Cipher\\_raw_ecb.pyd',
   'C:\\Users\\Divyanshu\\Desktop\\knight-vision_tp\\electron-app\\python\\pyenv\\Lib\\site-packages\\Cryptodome\\Cipher\\_raw_ecb.pyd',
   'BINARY'),
  ('Cryptodome\\Math\\_modexp.pyd',
   'C:\\Users\\Divyanshu\\Desktop\\knight-vision_tp\\electron-app\\python\\pyenv\\Lib\\site-packages\\Cryptodome\\Math\\_modexp.pyd',
   'BINARY'),
  ('Cryptodome\\Util\\_strxor.pyd',
   'C:\\Users\\Divyanshu\\Desktop\\knight-vision_tp\\electron-app\\python\\pyenv\\Lib\\site-packages\\Cryptodome\\Util\\_strxor.pyd',
   'BINARY'),
  ('Cryptodome\\Cipher\\_raw_cbc.pyd',
   'C:\\Users\\Divyanshu\\Desktop\\knight-vision_tp\\electron-app\\python\\pyenv\\Lib\\site-packages\\Cryptodome\\Cipher\\_raw_cbc.pyd',
   'BINARY'),
  ('Cryptodome\\Cipher\\_raw_aes.pyd',
   'C:\\Users\\Divyanshu\\Desktop\\knight-vision_tp\\electron-app\\python\\pyenv\\Lib\\site-packages\\Cryptodome\\Cipher\\_raw_aes.pyd',
   'BINARY'),
  ('Cryptodome\\Cipher\\_ARC4.pyd',
   'C:\\Users\\Divyanshu\\Desktop\\knight-vision_tp\\electron-app\\python\\pyenv\\Lib\\site-packages\\Cryptodome\\Cipher\\_ARC4.pyd',
   'BINARY'),
  ('Cryptodome\\Hash\\_MD5.pyd',
   'C:\\Users\\Divyanshu\\Desktop\\knight-vision_tp\\electron-app\\python\\pyenv\\Lib\\site-packages\\Cryptodome\\Hash\\_MD5.pyd',
   'BINARY'),
  ('Cryptodome\\PublicKey\\_ed25519.pyd',
   'C:\\Users\\Divyanshu\\Desktop\\knight-vision_tp\\electron-app\\python\\pyenv\\Lib\\site-packages\\Cryptodome\\PublicKey\\_ed25519.pyd',
   'BINARY'),
  ('Cryptodome\\Hash\\_RIPEMD160.pyd',
   'C:\\Users\\Divyanshu\\Desktop\\knight-vision_tp\\electron-app\\python\\pyenv\\Lib\\site-packages\\Cryptodome\\Hash\\_RIPEMD160.pyd',
   'BINARY'),
  ('Cryptodome\\Util\\_cpuid_c.pyd',
   'C:\\Users\\Divyanshu\\Desktop\\knight-vision_tp\\electron-app\\python\\pyenv\\Lib\\site-packages\\Cryptodome\\Util\\_cpuid_c.pyd',
   'BINARY'),
  ('Cryptodome\\Hash\\_SHA1.pyd',
   'C:\\Users\\Divyanshu\\Desktop\\knight-vision_tp\\electron-app\\python\\pyenv\\Lib\\site-packages\\Cryptodome\\Hash\\_SHA1.pyd',
   'BINARY'),
  ('Cryptodome\\Hash\\_poly1305.pyd',
   'C:\\Users\\Divyanshu\\Desktop\\knight-vision_tp\\electron-app\\python\\pyenv\\Lib\\site-packages\\Cryptodome\\Hash\\_poly1305.pyd',
   'BINARY'),
  ('Cryptodome\\PublicKey\\_ec_ws.pyd',
   'C:\\Users\\Divyanshu\\Desktop\\knight-vision_tp\\electron-app\\python\\pyenv\\Lib\\site-packages\\Cryptodome\\PublicKey\\_ec_ws.pyd',
   'BINARY'),
  ('pywin32_system32\\pythoncom311.dll',
   'C:\\Users\\Divyanshu\\Desktop\\knight-vision_tp\\electron-app\\python\\pyenv\\Lib\\site-packages\\pywin32_system32\\pythoncom311.dll',
   'BINARY'),
  ('Cryptodome\\Cipher\\_raw_aesni.pyd',
   'C:\\Users\\Divyanshu\\Desktop\\knight-vision_tp\\electron-app\\python\\pyenv\\Lib\\site-packages\\Cryptodome\\Cipher\\_raw_aesni.pyd',
   'BINARY'),
  ('Cryptodome\\Cipher\\_raw_des3.pyd',
   'C:\\Users\\Divyanshu\\Desktop\\knight-vision_tp\\electron-app\\python\\pyenv\\Lib\\site-packages\\Cryptodome\\Cipher\\_raw_des3.pyd',
   'BINARY'),
  ('Cryptodome\\Hash\\_keccak.pyd',
   'C:\\Users\\Divyanshu\\Desktop\\knight-vision_tp\\electron-app\\python\\pyenv\\Lib\\site-packages\\Cryptodome\\Hash\\_keccak.pyd',
   'BINARY'),
  ('Cryptodome\\Cipher\\_pkcs1_decode.pyd',
   'C:\\Users\\Divyanshu\\Desktop\\knight-vision_tp\\electron-app\\python\\pyenv\\Lib\\site-packages\\Cryptodome\\Cipher\\_pkcs1_decode.pyd',
   'BINARY'),
  ('Cryptodome\\Hash\\_SHA224.pyd',
   'C:\\Users\\Divyanshu\\Desktop\\knight-vision_tp\\electron-app\\python\\pyenv\\Lib\\site-packages\\Cryptodome\\Hash\\_SHA224.pyd',
   'BINARY'),
  ('Cryptodome\\Hash\\_BLAKE2b.pyd',
   'C:\\Users\\Divyanshu\\Desktop\\knight-vision_tp\\electron-app\\python\\pyenv\\Lib\\site-packages\\Cryptodome\\Hash\\_BLAKE2b.pyd',
   'BINARY'),
  ('win32\\win32trace.pyd',
   'C:\\Users\\Divyanshu\\Desktop\\knight-vision_tp\\electron-app\\python\\pyenv\\Lib\\site-packages\\win32\\win32trace.pyd',
   'EXTENSION'),
  ('Pythonwin\\win32ui.pyd',
   'C:\\Users\\Divyanshu\\Desktop\\knight-vision_tp\\electron-app\\python\\pyenv\\Lib\\site-packages\\Pythonwin\\win32ui.pyd',
   'EXTENSION'),
  ('_decimal.pyd',
   'C:\\Users\\Divyanshu\\AppData\\Local\\Programs\\Python\\Python311\\DLLs\\_decimal.pyd',
   'EXTENSION'),
  ('_hashlib.pyd',
   'C:\\Users\\Divyanshu\\AppData\\Local\\Programs\\Python\\Python311\\DLLs\\_hashlib.pyd',
   'EXTENSION'),
  ('select.pyd',
   'C:\\Users\\Divyanshu\\AppData\\Local\\Programs\\Python\\Python311\\DLLs\\select.pyd',
   'EXTENSION'),
  ('_socket.pyd',
   'C:\\Users\\Divyanshu\\AppData\\Local\\Programs\\Python\\Python311\\DLLs\\_socket.pyd',
   'EXTENSION'),
  ('_lzma.pyd',
   'C:\\Users\\Divyanshu\\AppData\\Local\\Programs\\Python\\Python311\\DLLs\\_lzma.pyd',
   'EXTENSION'),
  ('_bz2.pyd',
   'C:\\Users\\Divyanshu\\AppData\\Local\\Programs\\Python\\Python311\\DLLs\\_bz2.pyd',
   'EXTENSION'),
  ('win32\\_win32sysloader.pyd',
   'C:\\Users\\Divyanshu\\Desktop\\knight-vision_tp\\electron-app\\python\\pyenv\\Lib\\site-packages\\win32\\_win32sysloader.pyd',
   'EXTENSION'),
  ('win32\\win32api.pyd',
   'C:\\Users\\Divyanshu\\Desktop\\knight-vision_tp\\electron-app\\python\\pyenv\\Lib\\site-packages\\win32\\win32api.pyd',
   'EXTENSION'),
  ('_ctypes.pyd',
   'C:\\Users\\Divyanshu\\AppData\\Local\\Programs\\Python\\Python311\\DLLs\\_ctypes.pyd',
   'EXTENSION'),
  ('_ssl.pyd',
   'C:\\Users\\Divyanshu\\AppData\\Local\\Programs\\Python\\Python311\\DLLs\\_ssl.pyd',
   'EXTENSION'),
  ('win32com\\shell\\shell.pyd',
   'D:\\knight-vision_tp\\electron-app\\python\\pyenv\\Lib\\site-packages\\win32comext\\shell\\shell.pyd',
   'EXTENSION'),
  ('pyexpat.pyd',
   'C:\\Users\\Divyanshu\\AppData\\Local\\Programs\\Python\\Python311\\DLLs\\pyexpat.pyd',
   'EXTENSION'),
  ('_multiprocessing.pyd',
   'C:\\Users\\Divyanshu\\AppData\\Local\\Programs\\Python\\Python311\\DLLs\\_multiprocessing.pyd',
   'EXTENSION'),
  ('unicodedata.pyd',
   'C:\\Users\\Divyanshu\\AppData\\Local\\Programs\\Python\\Python311\\DLLs\\unicodedata.pyd',
   'EXTENSION'),
  ('_queue.pyd',
   'C:\\Users\\Divyanshu\\AppData\\Local\\Programs\\Python\\Python311\\DLLs\\_queue.pyd',
   'EXTENSION'),
  ('charset_normalizer\\md__mypyc.cp311-win_amd64.pyd',
   'D:\\knight-vision_tp\\electron-app\\python\\pyenv\\Lib\\site-packages\\charset_normalizer\\md__mypyc.cp311-win_amd64.pyd',
   'EXTENSION'),
  ('charset_normalizer\\md.cp311-win_amd64.pyd',
   'D:\\knight-vision_tp\\electron-app\\python\\pyenv\\Lib\\site-packages\\charset_normalizer\\md.cp311-win_amd64.pyd',
   'EXTENSION'),
  ('greenlet\\_greenlet.cp311-win_amd64.pyd',
   'D:\\knight-vision_tp\\electron-app\\python\\pyenv\\Lib\\site-packages\\greenlet\\_greenlet.cp311-win_amd64.pyd',
   'EXTENSION'),
  ('_overlapped.pyd',
   'C:\\Users\\Divyanshu\\AppData\\Local\\Programs\\Python\\Python311\\DLLs\\_overlapped.pyd',
   'EXTENSION'),
  ('wrapt\\_wrappers.cp311-win_amd64.pyd',
   'D:\\knight-vision_tp\\electron-app\\python\\pyenv\\Lib\\site-packages\\wrapt\\_wrappers.cp311-win_amd64.pyd',
   'EXTENSION'),
  ('_sqlite3.pyd',
   'C:\\Users\\Divyanshu\\AppData\\Local\\Programs\\Python\\Python311\\DLLs\\_sqlite3.pyd',
   'EXTENSION'),
  ('win32\\win32event.pyd',
   'C:\\Users\\Divyanshu\\Desktop\\knight-vision_tp\\electron-app\\python\\pyenv\\Lib\\site-packages\\win32\\win32event.pyd',
   'EXTENSION'),
  ('_asyncio.pyd',
   'C:\\Users\\Divyanshu\\AppData\\Local\\Programs\\Python\\Python311\\DLLs\\_asyncio.pyd',
   'EXTENSION'),
  ('tornado\\speedups.pyd',
   'D:\\knight-vision_tp\\electron-app\\python\\pyenv\\Lib\\site-packages\\tornado\\speedups.pyd',
   'EXTENSION'),
  ('win32\\win32evtlog.pyd',
   'C:\\Users\\Divyanshu\\Desktop\\knight-vision_tp\\electron-app\\python\\pyenv\\Lib\\site-packages\\win32\\win32evtlog.pyd',
   'EXTENSION'),
  ('yarl\\_quoting_c.cp311-win_amd64.pyd',
   'D:\\knight-vision_tp\\electron-app\\python\\pyenv\\Lib\\site-packages\\yarl\\_quoting_c.cp311-win_amd64.pyd',
   'EXTENSION'),
  ('multidict\\_multidict.cp311-win_amd64.pyd',
   'D:\\knight-vision_tp\\electron-app\\python\\pyenv\\Lib\\site-packages\\multidict\\_multidict.cp311-win_amd64.pyd',
   'EXTENSION'),
  ('aiohttp\\_http_writer.cp311-win_amd64.pyd',
   'D:\\knight-vision_tp\\electron-app\\python\\pyenv\\Lib\\site-packages\\aiohttp\\_http_writer.cp311-win_amd64.pyd',
   'EXTENSION'),
  ('aiohttp\\_http_parser.cp311-win_amd64.pyd',
   'D:\\knight-vision_tp\\electron-app\\python\\pyenv\\Lib\\site-packages\\aiohttp\\_http_parser.cp311-win_amd64.pyd',
   'EXTENSION'),
  ('frozenlist\\_frozenlist.cp311-win_amd64.pyd',
   'D:\\knight-vision_tp\\electron-app\\python\\pyenv\\Lib\\site-packages\\frozenlist\\_frozenlist.cp311-win_amd64.pyd',
   'EXTENSION'),
  ('aiohttp\\_helpers.cp311-win_amd64.pyd',
   'D:\\knight-vision_tp\\electron-app\\python\\pyenv\\Lib\\site-packages\\aiohttp\\_helpers.cp311-win_amd64.pyd',
   'EXTENSION'),
  ('aiohttp\\_websocket.cp311-win_amd64.pyd',
   'D:\\knight-vision_tp\\electron-app\\python\\pyenv\\Lib\\site-packages\\aiohttp\\_websocket.cp311-win_amd64.pyd',
   'EXTENSION'),
  ('_uuid.pyd',
   'C:\\Users\\Divyanshu\\AppData\\Local\\Programs\\Python\\Python311\\DLLs\\_uuid.pyd',
   'EXTENSION'),
  ('msgpack\\_cmsgpack.cp311-win_amd64.pyd',
   'D:\\knight-vision_tp\\electron-app\\python\\pyenv\\Lib\\site-packages\\msgpack\\_cmsgpack.cp311-win_amd64.pyd',
   'EXTENSION'),
  ('VCRUNTIME140_1.dll',
   'C:\\Users\\Divyanshu\\AppData\\Local\\Programs\\Python\\Python311\\VCRUNTIME140_1.dll',
   'BINARY'),
  ('Pythonwin\\mfc140u.dll',
   'C:\\Users\\Divyanshu\\Desktop\\knight-vision_tp\\electron-app\\python\\pyenv\\Lib\\site-packages\\Pythonwin\\mfc140u.dll',
   'BINARY'),
  ('libcrypto-1_1.dll',
   'C:\\Users\\Divyanshu\\AppData\\Local\\Programs\\Python\\Python311\\DLLs\\libcrypto-1_1.dll',
   'BINARY'),
  ('libffi-8.dll',
   'C:\\Users\\Divyanshu\\AppData\\Local\\Programs\\Python\\Python311\\DLLs\\libffi-8.dll',
   'BINARY'),
  ('libssl-1_1.dll',
   'C:\\Users\\Divyanshu\\AppData\\Local\\Programs\\Python\\Python311\\DLLs\\libssl-1_1.dll',
   'BINARY'),
  ('MSVCP140.dll', 'C:\\WINDOWS\\system32\\MSVCP140.dll', 'BINARY'),
  ('sqlite3.dll',
   'C:\\Users\\Divyanshu\\AppData\\Local\\Programs\\Python\\Python311\\DLLs\\sqlite3.dll',
   'BINARY'),
  ('python3.dll',
   'C:\\Users\\Divyanshu\\AppData\\Local\\Programs\\Python\\Python311\\python3.dll',
   'BINARY'),
  ('base_library.zip',
   'D:\\knight-vision_tp\\electron-app\\python\\build\\main\\base_library.zip',
   'DATA'),
  ('certifi\\cacert.pem',
   'C:\\Users\\Divyanshu\\Desktop\\knight-vision_tp\\electron-app\\python\\pyenv\\Lib\\site-packages\\certifi\\cacert.pem',
   'DATA'),
  ('certifi\\py.typed',
   'C:\\Users\\Divyanshu\\Desktop\\knight-vision_tp\\electron-app\\python\\pyenv\\Lib\\site-packages\\certifi\\py.typed',
   'DATA'),
  ('attrs-23.1.0.dist-info\\METADATA',
   'c:\\users\\divyanshu\\desktop\\knight-vision_tp\\electron-app\\python\\pyenv\\lib\\site-packages\\attrs-23.1.0.dist-info\\METADATA',
   'DATA'),
  ('attrs-23.1.0.dist-info\\INSTALLER',
   'c:\\users\\divyanshu\\desktop\\knight-vision_tp\\electron-app\\python\\pyenv\\lib\\site-packages\\attrs-23.1.0.dist-info\\INSTALLER',
   'DATA'),
  ('attrs-23.1.0.dist-info\\licenses\\LICENSE',
   'c:\\users\\divyanshu\\desktop\\knight-vision_tp\\electron-app\\python\\pyenv\\lib\\site-packages\\attrs-23.1.0.dist-info\\licenses\\LICENSE',
   'DATA'),
  ('setuptools-65.5.0.dist-info\\METADATA',
   'c:\\users\\divyanshu\\desktop\\knight-vision_tp\\electron-app\\python\\pyenv\\lib\\site-packages\\setuptools-65.5.0.dist-info\\METADATA',
   'DATA'),
  ('attrs-23.1.0.dist-info\\WHEEL',
   'c:\\users\\divyanshu\\desktop\\knight-vision_tp\\electron-app\\python\\pyenv\\lib\\site-packages\\attrs-23.1.0.dist-info\\WHEEL',
   'DATA'),
  ('setuptools-65.5.0.dist-info\\REQUESTED',
   'c:\\users\\divyanshu\\desktop\\knight-vision_tp\\electron-app\\python\\pyenv\\lib\\site-packages\\setuptools-65.5.0.dist-info\\REQUESTED',
   'DATA'),
  ('setuptools-65.5.0.dist-info\\INSTALLER',
   'c:\\users\\divyanshu\\desktop\\knight-vision_tp\\electron-app\\python\\pyenv\\lib\\site-packages\\setuptools-65.5.0.dist-info\\INSTALLER',
   'DATA'),
  ('attrs-23.1.0.dist-info\\RECORD',
   'c:\\users\\divyanshu\\desktop\\knight-vision_tp\\electron-app\\python\\pyenv\\lib\\site-packages\\attrs-23.1.0.dist-info\\RECORD',
   'DATA'),
  ('setuptools-65.5.0.dist-info\\RECORD',
   'c:\\users\\divyanshu\\desktop\\knight-vision_tp\\electron-app\\python\\pyenv\\lib\\site-packages\\setuptools-65.5.0.dist-info\\RECORD',
   'DATA'),
  ('attrs-23.1.0.dist-info\\REQUESTED',
   'c:\\users\\divyanshu\\desktop\\knight-vision_tp\\electron-app\\python\\pyenv\\lib\\site-packages\\attrs-23.1.0.dist-info\\REQUESTED',
   'DATA'),
  ('setuptools-65.5.0.dist-info\\entry_points.txt',
   'c:\\users\\divyanshu\\desktop\\knight-vision_tp\\electron-app\\python\\pyenv\\lib\\site-packages\\setuptools-65.5.0.dist-info\\entry_points.txt',
   'DATA'),
  ('setuptools-65.5.0.dist-info\\LICENSE',
   'c:\\users\\divyanshu\\desktop\\knight-vision_tp\\electron-app\\python\\pyenv\\lib\\site-packages\\setuptools-65.5.0.dist-info\\LICENSE',
   'DATA'),
  ('setuptools-65.5.0.dist-info\\WHEEL',
   'c:\\users\\divyanshu\\desktop\\knight-vision_tp\\electron-app\\python\\pyenv\\lib\\site-packages\\setuptools-65.5.0.dist-info\\WHEEL',
   'DATA'),
  ('setuptools-65.5.0.dist-info\\top_level.txt',
   'c:\\users\\divyanshu\\desktop\\knight-vision_tp\\electron-app\\python\\pyenv\\lib\\site-packages\\setuptools-65.5.0.dist-info\\top_level.txt',
   'DATA')],
 False,
 False,
 False,
 [],
 None,
 None,
 None)
